Data Science-AG - 3. Textbasierte Daten
…
inserate <- read_csv("data/angebote_1000.csv")

Rows: 1000 Columns: 49
── Column specification ────────────────────────────────────────────────────────
Delimiter: ","
chr (20): regio1, heatingType, telekomTvOffer, firingTypes, geo_bln, houseNu...
dbl (23): serviceCharge, telekomHybridUploadSpeed, picturecount, pricetrend,...
lgl  (6): newlyConst, balcony, hasKitchen, cellar, lift, garden

ℹ Use `spec()` to retrieve the full column specification for this data.
ℹ Specify the column types or set `show_col_types = FALSE` to quiet this message.

inserate

# A tibble: 1,000 × 49
   regio1        serviceCharge heatingType telekomTvOffer telekomHybridUploadS…¹
   <chr>                 <dbl> <chr>       <chr>                           <dbl>
 1 Nordrhein_We…         245   central_he… ONE_YEAR_FREE                      NA
 2 Rheinland_Pf…         134   self_conta… ONE_YEAR_FREE                      NA
 3 Sachsen               255   floor_heat… ONE_YEAR_FREE                      10
 4 Sachsen                58.2 district_h… ONE_YEAR_FREE                      NA
 5 Bremen                138   self_conta… <NA>                               NA
 6 Sachsen                70   self_conta… ONE_YEAR_FREE                      10
 7 Bremen                 88   central_he… ONE_YEAR_FREE                      10
 8 Baden_Württe…         110   oil_heating ONE_YEAR_FREE                      NA
 9 Nordrhein_We…          95   self_conta… ONE_YEAR_FREE                      NA
10 Sachsen                88   <NA>        ONE_YEAR_FREE                      NA
# ℹ 990 more rows
# ℹ abbreviated name: ¹​telekomHybridUploadSpeed
# ℹ 44 more variables: newlyConst <lgl>, balcony <lgl>, picturecount <dbl>,
#   pricetrend <dbl>, telekomUploadSpeed <dbl>, totalRent <dbl>,
#   yearConstructed <dbl>, scoutId <dbl>, noParkSpaces <dbl>,
#   firingTypes <chr>, hasKitchen <lgl>, geo_bln <chr>, cellar <lgl>,
#   yearConstructedRange <dbl>, baseRent <dbl>, houseNumber <chr>, …
…
Fokussieren wir uns auf die Spalten totalRent, description und facilities, sowie die scoutId, die das jeweilige Angebot identifiziert.

inserate_textdaten <-
  inserate %>% 
  select(scoutId, totalRent, description, facilities)

inserate_textdaten

# A tibble: 1,000 × 4
     scoutId totalRent description                                    facilities
       <dbl>     <dbl> <chr>                                          <chr>     
 1  96107057      840  "Die ebenerdig zu erreichende Erdgeschosswohn… "Die Wohn…
 2 111378734       NA  "Alles neu macht der Mai – so kann es auch fü…  <NA>     
 3 113147523     1300  "Der Neubau entsteht im Herzen der Dresdner N… "* 9 m² B…
 4 108890903       NA  "Abseits von Lärm und Abgasen in Ihre neue Wo…  <NA>     
 5 114751222      903  "Es handelt sich hier um ein saniertes Mehrfa… "Diese Wo…
 6 114391930      380  "Am Bahnhof 14 in Freiberg\nHeizkosten und Wa…  <NA>     
 7 115270775      584. "+ Komfortabler Bodenbelag: Die Wohnung ist z… "Rollläde…
 8 106416361      690  "Diese ansprechende, lichtdurchflutete DG-Woh… "Parkett,…
 9  91383597       NA  "Sie sind auf der Suche nach einer gepflegten… "In Ihrem…
10 112923517      307  "Gemütliche 2-Raum Wohnung in Chemnitz.  komp…  <NA>     
# ℹ 990 more rows

Wir wollen nur Angebote betrachten, die einen Preis sowie eine generelle Beschreibung haben.

relevante_inserate <-
  inserate_textdaten %>% 
  drop_na(totalRent, description)

relevante_inserate

# A tibble: 855 × 4
     scoutId totalRent description                                    facilities
       <dbl>     <dbl> <chr>                                          <chr>     
 1  96107057      840  "Die ebenerdig zu erreichende Erdgeschosswohn… "Die Wohn…
 2 113147523     1300  "Der Neubau entsteht im Herzen der Dresdner N… "* 9 m² B…
 3 114751222      903  "Es handelt sich hier um ein saniertes Mehrfa… "Diese Wo…
 4 114391930      380  "Am Bahnhof 14 in Freiberg\nHeizkosten und Wa…  <NA>     
 5 115270775      584. "+ Komfortabler Bodenbelag: Die Wohnung ist z… "Rollläde…
 6 106416361      690  "Diese ansprechende, lichtdurchflutete DG-Woh… "Parkett,…
 7 112923517      307  "Gemütliche 2-Raum Wohnung in Chemnitz.  komp…  <NA>     
 8 109842225      555  "Gern möchten wir Ihnen diese 3-Zimmer-Wohnun… "- Wohnzi…
 9 111251778      920  "Altes Sandsteinhaus unter Denkmalschutz im J… "Die Char…
10 101730329     1150  "Die angebotene Wohnfläche befindet sich im d… "Die Wohn…
# ℹ 845 more rows
…
tokens <- 
  relevante_inserate %>%
  select(description) %>%
  unnest_tokens(input = description,
                output = word,
                to_lower = TRUE)

Häufigkeitsliste

Der obenstehende Code erzeugt einen Tibble mit allen Wörtern (tokens), die in den Texten vorkommen. Wir können nun ausgeben lassen, wie oft jedes Wort vorkommt und die Wörter nach Häufigkeit sortieren:

tokens %>% 
  count(word, sort = TRUE) 

# A tibble: 8,041 × 2
   word        n
   <chr>   <int>
 1 und      1931
 2 die      1522
 3 mit      1326
 4 in       1234
 5 der      1075
 6 wohnung   967
 7 ein       821
 8 im        791
 9 sich      756
10 das       706
# ℹ 8,031 more rows
…
stoppwoerter <- 
  get_stopwords("de") %>% 
  pull(word)

tokens_relevant <-
  tokens %>% 
  filter(!word %in% stoppwoerter)

haeufigkeitsliste <-
  tokens_relevant %>% 
  count(word, sort = TRUE)

haeufigkeitsliste

# A tibble: 7,875 × 2
   word         n
   <chr>    <int>
 1 wohnung    967
 2 befindet   311
 3 zimmer     293
 4 2          289
 5 küche      256
 6 balkon     218
 7 sowie      214
 8 3          200
 9 wurde      200
10 verfügt    184
# ℹ 7,865 more rows
…
Rows: 34603 Columns: 4
── Column specification ────────────────────────────────────────────────────────
Delimiter: ","
chr (3): type, POS, Wort
dbl (1): Wert

ℹ Use `spec()` to retrieve the full column specification for this data.
ℹ Specify the column types or set `show_col_types = FALSE` to quiet this message.

Schauen wir uns diese Liste oder auch Lexikon einmal an.

sentiDat

# A tibble: 34,603 × 4
   type     Wert POS   Wort          
   <chr>   <dbl> <chr> <chr>         
 1 neg   -0.058  NN    abbaus        
 2 neg   -0.0048 NN    abbruches     
 3 neg   -0.0048 NN    abdankungen   
 4 neg   -0.0048 NN    abdämpfungen  
 5 neg   -0.0048 NN    abfalles      
 6 neg   -0.337  NN    abfuhren      
 7 neg   -0.346  NN    abgründe      
 8 neg   -0.365  NN    abhängigkeiten
 9 neg   -0.512  NN    ablehnungen   
10 neg   -0.0435 NN    ablenkungen   
# ℹ 34,593 more rows
…
